<?xml version="1.0" encoding="utf-8"?>
<svg version="1.1" id="Слой_1" xmlns="http://www.w3.org/2000/svg" xmlns:xlink="http://www.w3.org/1999/xlink" x="0px"
     y="0px"
     viewBox="0 0 150 150" style="enable-background:new 0 0 150 150;" xml:space="preserve">
<style type="text/css">
	.st0{fill:#212121;}
</style>
    <g>
	<path class="st0" d="M34.66,92.03c8.6,1.16,16.2,4.13,22.65,8.6c6.61,4.63,10.91,10.08,12.9,16.53V13h9.59v104.16
		c1.98-6.45,6.28-11.9,12.73-16.53c6.61-4.46,14.22-7.44,22.82-8.6l2.48,11.08c-22.98,1.32-36.21,15.21-38.03,33.89h-9.59
		c-1.82-18.68-15.05-32.57-38.03-33.89L34.66,92.03z"/>
</g>
</svg>
