<svg width="48" height="48" viewBox="0 0 48 48" fill="none" xmlns="http://www.w3.org/2000/svg">
<path d="M14.4664 28.5953L10.461 44.8489C10.0371 46.5644 12.1293 47.7372 13.3375 46.4609L40.525 17.7181C40.7562 17.4744 40.9116 17.1672 40.9719 16.8346C41.0323 16.502 40.9949 16.1587 40.8644 15.8475C40.734 15.5363 40.5163 15.2708 40.2383 15.0841C39.9603 14.8975 39.6343 14.7979 39.301 14.7976H29.1912L32.9813 3.26971C33.0664 3.01039 33.0896 2.73425 33.0488 2.46405C33.0081 2.19386 32.9047 1.93736 32.7471 1.71568C32.5894 1.49401 32.3821 1.31352 32.1422 1.18909C31.9024 1.06465 31.6367 0.999843 31.3673 1H15.5C15.1306 1.00008 14.7713 1.12221 14.4764 1.34793C14.1815 1.57364 13.9671 1.89065 13.8657 2.25099L7.06539 26.3969C6.99312 26.6535 6.98056 26.9237 7.02869 27.1861C7.07682 27.4485 7.18432 27.696 7.34275 27.9091C7.50117 28.1222 7.70618 28.2951 7.94165 28.4142C8.17712 28.5332 8.43662 28.5952 8.69972 28.5953H14.4664ZM25.2221 15.9773C25.1371 16.2365 25.1139 16.5124 25.1545 16.7824C25.1951 17.0524 25.2983 17.3088 25.4557 17.5304C25.613 17.7521 25.82 17.9326 26.0596 18.0572C26.2992 18.1818 26.5646 18.2468 26.8338 18.2471H35.3115L15.3096 39.3942L18.2926 27.2891C18.3553 27.0349 18.3601 26.7696 18.3066 26.5133C18.2531 26.257 18.1427 26.0164 17.9839 25.8098C17.825 25.6032 17.6219 25.4361 17.3898 25.321C17.1578 25.206 16.903 25.1461 16.6447 25.1459H10.9551L16.7807 4.44941H29.0076L25.2221 15.9773Z" fill="#1C54FC"/>
</svg>
