<svg width="48" height="48" viewBox="0 0 48 48" fill="none" xmlns="http://www.w3.org/2000/svg">
<path d="M20.1589 47C19.6054 46.9955 19.0613 46.8535 18.5745 46.5865C18.0377 46.2987 17.5886 45.868 17.2756 45.3408C16.9625 44.8135 16.7974 44.2097 16.798 43.5944V24.6203C16.7989 24.5033 16.756 24.3903 16.678 24.3041L0.881582 6.69227C0.436126 6.20738 0.143398 5.59896 0.0407738 4.9447C-0.0618501 4.29044 0.0302872 3.62004 0.305421 3.01909C0.567562 2.41562 0.998108 1.90297 1.54407 1.54424C2.09003 1.18552 2.72759 0.996359 3.37827 1.00005H44.6217C45.2724 0.996359 45.91 1.18552 46.4559 1.54424C47.0019 1.90297 47.4324 2.41562 47.6946 3.01909C47.9697 3.62004 48.0619 4.29044 47.9592 4.9447C47.8566 5.59896 47.5639 6.20738 47.1184 6.69227L31.322 24.2798C31.2475 24.3776 31.2054 24.4968 31.202 24.6203V38.3887C31.2049 38.9507 31.0706 39.5047 30.8108 40.0013C30.5511 40.4979 30.1742 40.9217 29.7136 41.2348L22.0315 46.4162C21.4783 46.7949 20.8265 46.9981 20.1589 47ZM3.37827 3.91914C3.28476 3.91377 3.19205 3.93933 3.11411 3.99198C3.03617 4.04463 2.97723 4.12151 2.94615 4.21105C2.89923 4.29186 2.8808 4.38643 2.89388 4.47925C2.90697 4.57207 2.9508 4.65762 3.01817 4.72189L18.8146 22.3337C19.3705 22.9622 19.6782 23.7763 19.6788 24.6203V43.5944C19.6799 43.6815 19.7052 43.7666 19.7519 43.8398C19.7987 43.9129 19.8649 43.9712 19.9429 44.0079C20.0163 44.0525 20.1011 44.074 20.1866 44.0697C20.2721 44.0653 20.3543 44.0354 20.423 43.9836L28.1051 38.8022C28.1726 38.7573 28.2277 38.6958 28.2655 38.6235C28.3032 38.5512 28.3224 38.4705 28.3212 38.3887V24.6203C28.3218 23.7763 28.6295 22.9622 29.1854 22.3337L44.9818 4.72189C45.0492 4.65762 45.093 4.57207 45.1061 4.47925C45.1192 4.38643 45.1008 4.29186 45.0538 4.21105C45.0228 4.12151 44.9638 4.04463 44.8859 3.99198C44.808 3.93933 44.7152 3.91377 44.6217 3.91914H3.37827Z" fill="#1C54FC"/>
</svg>
