<svg width="80" height="80" viewBox="0 0 80 80" fill="none" xmlns="http://www.w3.org/2000/svg">
<circle cx="40" cy="40" r="39.5" stroke="#666666"/>
<path d="M37.992 42.264H29.016V38.904H37.992V29.208H41.496V38.904H50.472V42.264H41.496V51.96H37.992V42.264Z" fill="#666666"/>
</svg>
